FPSA
…
# Loading the data

data_1_final <- read_excel("C:/Users/T0087231/Videos/data-1 final.xlsx")
View(data_1_final)
data_1_final

# A tibble: 300 × 17
   participants   age `duration /years` `family history` `P. size` Treatment
   <chr>        <dbl>             <dbl> <chr>                <dbl> <chr>    
 1 control         84                NA <NA>                    NA <NA>     
 2 control         62                NA <NA>                    NA <NA>     
 3 control         84                NA <NA>                    NA <NA>     
 4 control         75                NA <NA>                    NA <NA>     
 5 control         61                NA <NA>                    NA <NA>     
 6 control         65                NA <NA>                    NA <NA>     
 7 control         59                NA <NA>                    NA <NA>     
 8 control         71                NA <NA>                    NA <NA>     
 9 control         83                NA <NA>                    NA <NA>     
10 control         76                NA <NA>                    NA <NA>     
# ℹ 290 more rows
# ℹ 11 more variables: `Treatment status` <chr>, Grade <chr>,
#   `gleasons score` <chr>, `PSA ng/ml` <dbl>, `fPSA ng/ml` <dbl>,
#   `cPSA ng/ml` <dbl>, `fPSA%` <dbl>, `cPSA%` <dbl>, ...15 <lgl>, ACT <dbl>,
#   `ACT GREEN` <dbl>
…
